<svg width="32" height="20" viewBox="0 0 32 20" fill="none" xmlns="http://www.w3.org/2000/svg">
<path d="M3.864 19.048C3.464 19.048 3.04 18.928 2.592 18.688C2.144 18.448 1.728 18.056 1.344 17.512C0.976 16.968 0.672 16.248 0.432 15.352C0.192 14.456 0.0720001 13.352 0.0720001 12.04C0.0720001 11 0.2 9.944 0.456 8.872C0.728 7.784 1.144 6.76 1.704 5.8C2.28 4.824 3.016 3.984 3.912 3.28C4.824 2.56 5.928 2.064 7.224 1.792C7.784 1.664 8.416 1.544 9.12 1.432C9.84 1.304 10.568 1.192 11.304 1.096C12.056 0.983999 12.76 0.895999 13.416 0.831999C14.088 0.767999 14.656 0.735999 15.12 0.735999C15.872 0.735999 16.408 0.871999 16.728 1.144C17.064 1.4 17.232 1.648 17.232 1.888C17.232 2.048 17.168 2.2 17.04 2.344C16.912 2.472 16.664 2.552 16.296 2.584C16.152 2.6 15.848 2.64 15.384 2.704C14.92 2.752 14.36 2.824 13.704 2.92C13.048 3.016 12.36 3.12 11.64 3.232C10.936 3.328 10.248 3.432 9.576 3.544C8.92 3.64 8.352 3.728 7.872 3.808C6.544 4.064 5.496 4.504 4.728 5.128C3.96 5.752 3.4 6.488 3.048 7.336C2.696 8.184 2.472 9.056 2.376 9.952C3.016 9.808 3.712 9.656 4.464 9.496C5.232 9.336 5.968 9.192 6.672 9.064C7.376 8.92 7.984 8.808 8.496 8.728C9.024 8.648 9.376 8.608 9.552 8.608C9.888 8.608 10.096 8.68 10.176 8.824C10.272 8.968 10.32 9.152 10.32 9.376C10.32 9.808 9.616 10.288 8.208 10.816C6.816 11.344 4.84 11.792 2.28 12.16C2.28 12.704 2.288 13.264 2.304 13.84C2.336 14.4 2.384 14.92 2.448 15.4C2.512 15.88 2.592 16.264 2.688 16.552C2.784 16.84 2.912 16.984 3.072 16.984C3.44 16.984 3.92 16.872 4.512 16.648C5.12 16.424 5.752 16.152 6.408 15.832C7.064 15.512 7.664 15.2 8.208 14.896C8.768 14.592 9.176 14.352 9.432 14.176C9.736 13.984 10.064 13.776 10.416 13.552C10.768 13.328 11.032 13.216 11.208 13.216C11.432 13.216 11.544 13.344 11.544 13.6C11.544 13.744 11.416 14.024 11.16 14.44C10.92 14.856 10.568 15.328 10.104 15.856C9.64 16.368 9.088 16.872 8.448 17.368C7.824 17.848 7.12 18.248 6.336 18.568C5.568 18.888 4.744 19.048 3.864 19.048ZM30.5661 18.28C30.5501 18.536 30.4461 18.744 30.2541 18.904C30.0621 19.064 29.8381 19.144 29.5821 19.144C29.2941 19.144 29.0541 19.048 28.8621 18.856C28.6701 18.664 28.5741 18.368 28.5741 17.968C28.5741 16.928 28.6221 15.8 28.7181 14.584C28.8141 13.352 28.9341 12.136 29.0781 10.936C29.2221 9.72 29.3661 8.6 29.5101 7.576C28.9821 8.328 28.4061 9.16 27.7821 10.072C27.1741 10.984 26.5501 11.888 25.9101 12.784C25.2701 13.68 24.6461 14.504 24.0381 15.256C23.4301 15.992 22.8781 16.592 22.3821 17.056C21.8861 17.504 21.4781 17.728 21.1581 17.728C20.5661 17.728 20.0541 17.496 19.6221 17.032C19.1901 16.552 18.9741 15.952 18.9741 15.232C18.9741 14.944 19.0061 14.552 19.0701 14.056C19.1341 13.544 19.2061 13.008 19.2861 12.448C19.3661 11.888 19.4381 11.368 19.5021 10.888C19.5661 10.392 19.5981 10.024 19.5981 9.784C19.5981 9.56 19.5741 9.368 19.5261 9.208C19.4941 9.032 19.4141 8.944 19.2861 8.944C19.0941 8.944 18.8301 9.16 18.4941 9.592C18.1581 10.008 17.7821 10.544 17.3661 11.2C16.9661 11.856 16.5501 12.552 16.1181 13.288C15.7021 14.024 15.3101 14.72 14.9421 15.376C14.5741 16.016 14.2621 16.52 14.0061 16.888C13.7981 17.24 13.6061 17.496 13.4301 17.656C13.2541 17.816 13.0381 17.896 12.7821 17.896C12.4781 17.896 12.1981 17.736 11.9421 17.416C11.7021 17.096 11.5821 16.704 11.5821 16.24C11.5821 15.968 11.6301 15.544 11.7261 14.968C11.8221 14.376 11.9421 13.728 12.0861 13.024C12.2461 12.32 12.3981 11.632 12.5421 10.96C12.7021 10.272 12.8381 9.688 12.9501 9.208C13.0781 8.664 13.2381 8.296 13.4301 8.104C13.6221 7.912 13.8301 7.816 14.0541 7.816C14.3581 7.816 14.5981 7.928 14.7741 8.152C14.9661 8.36 15.0621 8.688 15.0621 9.136C15.0621 9.216 15.0141 9.432 14.9181 9.784C14.8221 10.12 14.7021 10.536 14.5581 11.032C14.4301 11.512 14.2861 12.016 14.1261 12.544C13.9821 13.072 13.8621 13.56 13.7661 14.008C14.1181 13.416 14.4861 12.776 14.8701 12.088C15.2701 11.4 15.6701 10.72 16.0701 10.048C16.4701 9.36 16.8701 8.736 17.2701 8.176C17.6701 7.6 18.0621 7.144 18.4461 6.808C18.8301 6.472 19.1981 6.304 19.5501 6.304C19.9661 6.304 20.3501 6.432 20.7021 6.688C21.0701 6.944 21.3661 7.288 21.5901 7.72C21.8141 8.152 21.9261 8.632 21.9261 9.16C21.9261 9.528 21.8621 10.048 21.7341 10.72C21.6061 11.376 21.4701 12.088 21.3261 12.856C21.1981 13.624 21.1181 14.352 21.0861 15.04C21.0861 15.2 21.1341 15.28 21.2301 15.28C21.3101 15.28 21.4061 15.224 21.5181 15.112C21.9821 14.6 22.4941 13.984 23.0541 13.264C23.6141 12.528 24.1821 11.752 24.7581 10.936C25.3501 10.12 25.9341 9.32 26.5101 8.536C27.0861 7.736 27.6221 7.016 28.1181 6.376C28.6301 5.72 29.0781 5.2 29.4621 4.816C29.8621 4.432 30.1741 4.24 30.3981 4.24C30.8781 4.24 31.2461 4.376 31.5021 4.648C31.7581 4.92 31.8861 5.376 31.8861 6.016C31.8861 6.528 31.8461 7.192 31.7661 8.008C31.7021 8.824 31.6141 9.712 31.5021 10.672C31.4061 11.632 31.2941 12.6 31.1661 13.576C31.0541 14.536 30.9421 15.432 30.8301 16.264C30.7181 17.08 30.6301 17.752 30.5661 18.28Z" fill="white"/>
</svg>
